%YAML 1.1
%TAG !u! tag:unity3d.com,2011:
--- !u!1 &7040806170791953385
GameObject:
  m_ObjectHideFlags: 0
  m_CorrespondingSourceObject: {fileID: 0}
  m_PrefabInstance: {fileID: 0}
  m_PrefabAsset: {fileID: 0}
  serializedVersion: 6
  m_Component:
  - component: {fileID: 4266941403921958278}
  - component: {fileID: 5505765564439169907}
  - component: {fileID: 3353085526196120871}
  - component: {fileID: 5030450956824570279}
  m_Layer: 0
  m_Name: Tree
  m_TagString: Untagged
  m_Icon: {fileID: 0}
  m_NavMeshLayer: 0
  m_StaticEditorFlags: 0
  m_IsActive: 1
--- !u!4 &4266941403921958278
Transform:
  m_ObjectHideFlags: 0
  m_CorrespondingSourceObject: {fileID: 0}
  m_PrefabInstance: {fileID: 0}
  m_PrefabAsset: {fileID: 0}
  m_GameObject: {fileID: 7040806170791953385}
  m_LocalRotation: {x: 0, y: 0, z: 0, w: 1}
  m_LocalPosition: {x: 0, y: 0, z: 0}
  m_LocalScale: {x: 1, y: 1, z: 1}
  m_Children: []
  m_Father: {fileID: 0}
  m_RootOrder: 0
  m_LocalEulerAnglesHint: {x: 0, y: 0, z: 0}
--- !u!193 &5505765564439169907
Tree:
  m_ObjectHideFlags: 0
  m_CorrespondingSourceObject: {fileID: 0}
  m_PrefabInstance: {fileID: 0}
  m_PrefabAsset: {fileID: 0}
  m_GameObject: {fileID: 7040806170791953385}
  m_SpeedTreeWindAsset: {fileID: 0}
  m_TreeData: {fileID: 2386566834938538149}
--- !u!33 &3353085526196120871
MeshFilter:
  m_ObjectHideFlags: 0
  m_CorrespondingSourceObject: {fileID: 0}
  m_PrefabInstance: {fileID: 0}
  m_PrefabAsset: {fileID: 0}
  m_GameObject: {fileID: 7040806170791953385}
  m_Mesh: {fileID: -3308822204670646898}
--- !u!23 &5030450956824570279
MeshRenderer:
  m_ObjectHideFlags: 0
  m_CorrespondingSourceObject: {fileID: 0}
  m_PrefabInstance: {fileID: 0}
  m_PrefabAsset: {fileID: 0}
  m_GameObject: {fileID: 7040806170791953385}
  m_Enabled: 1
  m_CastShadows: 1
  m_ReceiveShadows: 1
  m_DynamicOccludee: 1
  m_MotionVectors: 1
  m_LightProbeUsage: 1
  m_ReflectionProbeUsage: 1
  m_RenderingLayerMask: 1
  m_RendererPriority: 0
  m_Materials: []
  m_StaticBatchInfo:
    firstSubMesh: 0
    subMeshCount: 0
  m_StaticBatchRoot: {fileID: 0}
  m_ProbeAnchor: {fileID: 0}
  m_LightProbeVolumeOverride: {fileID: 0}
  m_ScaleInLightmap: 1
  m_ReceiveGI: 1
  m_PreserveUVs: 0
  m_IgnoreNormalsForChartDetection: 0
  m_ImportantGI: 0
  m_StitchLightmapSeams: 1
  m_SelectedEditorRenderState: 3
  m_MinimumChartSize: 4
  m_AutoUVMaxDistance: 0.5
  m_AutoUVMaxAngle: 89
  m_LightmapParameters: {fileID: 0}
  m_SortingLayerID: 0
  m_SortingLayer: 0
  m_SortingOrder: 0
--- !u!43 &-3308822204670646898
Mesh:
  m_ObjectHideFlags: 0
  m_CorrespondingSourceObject: {fileID: 0}
  m_PrefabInstance: {fileID: 0}
  m_PrefabAsset: {fileID: 0}
  m_Name: Mesh
  serializedVersion: 10
  m_SubMeshes:
  - serializedVersion: 2
    firstByte: 0
    indexCount: 0
    topology: 0
    baseVertex: 0
    firstVertex: 0
    vertexCount: 0
    localAABB:
      m_Center: {x: 0, y: 0, z: 0}
      m_Extent: {x: 0, y: 0, z: 0}
  m_Shapes:
    vertices: []
    shapes: []
    channels: []
    fullWeights: []
  m_BindPose: []
  m_BoneNameHashes: 
  m_RootBoneNameHash: 0
  m_BonesAABB: []
  m_VariableBoneCountWeights:
    m_Data: 
  m_MeshCompression: 0
  m_IsReadable: 1
  m_KeepVertices: 1
  m_KeepIndices: 1
  m_IndexFormat: 0
  m_IndexBuffer: 
  m_VertexData:
    serializedVersion: 3
    m_VertexCount: 0
    m_Channels:
    - stream: 0
      offset: 0
      format: 0
      dimension: 3
    - stream: 0
      offset: 12
      format: 0
      dimension: 3
    - stream: 0
      offset: 24
      format: 0
      dimension: 4
    - stream: 0
      offset: 40
      format: 0
      dimension: 4
    - stream: 0
      offset: 56
      format: 0
      dimension: 2
    - stream: 0
      offset: 64
      format: 0
      dimension: 2
    - stream: 0
      offset: 0
      format: 0
      dimension: 0
    - stream: 0
      offset: 0
      format: 0
      dimension: 0
    - stream: 0
      offset: 0
      format: 0
      dimension: 0
    - stream: 0
      offset: 0
      format: 0
      dimension: 0
    - stream: 0
      offset: 0
      format: 0
      dimension: 0
    - stream: 0
      offset: 0
      format: 0
      dimension: 0
    - stream: 0
      offset: 0
      format: 0
      dimension: 0
    - stream: 0
      offset: 0
      format: 0
      dimension: 0
    m_DataSize: 0
    _typelessdata: 
  m_CompressedMesh:
    m_Vertices:
      m_NumItems: 0
      m_Range: 0
      m_Start: 0
      m_Data: 
      m_BitSize: 0
    m_UV:
      m_NumItems: 0
      m_Range: 0
      m_Start: 0
      m_Data: 
      m_BitSize: 0
    m_Normals:
      m_NumItems: 0
      m_Range: 0
      m_Start: 0
      m_Data: 
      m_BitSize: 0
    m_Tangents:
      m_NumItems: 0
      m_Range: 0
      m_Start: 0
      m_Data: 
      m_BitSize: 0
    m_Weights:
      m_NumItems: 0
      m_Data: 
      m_BitSize: 0
    m_NormalSigns:
      m_NumItems: 0
      m_Data: 
      m_BitSize: 0
    m_TangentSigns:
      m_NumItems: 0
      m_Data: 
      m_BitSize: 0
    m_FloatColors:
      m_NumItems: 0
      m_Range: 0
      m_Start: 0
      m_Data: 
      m_BitSize: 0
    m_BoneIndices:
      m_NumItems: 0
      m_Data: 
      m_BitSize: 0
    m_Triangles:
      m_NumItems: 0
      m_Data: 
      m_BitSize: 0
    m_UVInfo: 0
  m_LocalAABB:
    m_Center: {x: -0.077427864, y: 7.371292, z: -0.30755773}
    m_Extent: {x: 0.5748199, y: 7.371292, z: 0.99303865}
  m_MeshUsageFlags: 0
  m_BakedConvexCollisionMesh: 
  m_BakedTriangleCollisionMesh: 
  m_MeshMetrics[0]: 1
  m_MeshMetrics[1]: 1
  m_MeshOptimizationFlags: 1
  m_StreamData:
    offset: 0
    size: 0
    path: 
--- !u!21 &-490060827512846566
Material:
  serializedVersion: 6
  m_ObjectHideFlags: 0
  m_CorrespondingSourceObject: {fileID: 0}
  m_PrefabInstance: {fileID: 0}
  m_PrefabAsset: {fileID: 0}
  m_Name: Optimized Leaf Material
  m_Shader: {fileID: 10605, guid: 0000000000000000f000000000000000, type: 0}
  m_ShaderKeywords: 
  m_LightmapFlags: 4
  m_EnableInstancingVariants: 0
  m_DoubleSidedGI: 0
  m_CustomRenderQueue: -1
  stringTagMap: {}
  disabledShaderPasses: []
  m_SavedProperties:
    serializedVersion: 3
    m_TexEnvs:
    - _BumpSpecMap:
        m_Texture: {fileID: 2800000, guid: f385bd8f8c627d447954dc4c57cda7d3, type: 3}
        m_Scale: {x: 1, y: 1}
        m_Offset: {x: 0, y: 0}
    - _MainTex:
        m_Texture: {fileID: 2800000, guid: e4be5a2219a32ed409b4f063d9195332, type: 3}
        m_Scale: {x: 1, y: 1}
        m_Offset: {x: 0, y: 0}
    - _ShadowTex:
        m_Texture: {fileID: 2800000, guid: 844d42744de24a349bf53378ab46e33e, type: 3}
        m_Scale: {x: 1, y: 1}
        m_Offset: {x: 0, y: 0}
    - _TranslucencyMap:
        m_Texture: {fileID: 2800000, guid: 92203d5acc98461499337ac0a347ad4c, type: 3}
        m_Scale: {x: 1, y: 1}
        m_Offset: {x: 0, y: 0}
    m_Floats:
    - _Cutoff: 0.3
    - _ShadowOffsetScale: 1
    - _ShadowStrength: 0.8
    - _SquashAmount: 1
    - _TranslucencyViewDependency: 0.7
    m_Colors:
    - _Color: {r: 1, g: 1, b: 1, a: 1}
    - _TranslucencyColor: {r: 0.73, g: 0.85, b: 0.41, a: 1}
    - _TreeInstanceColor: {r: 1, g: 1, b: 1, a: 1}
    - _TreeInstanceScale: {r: 1, g: 1, b: 1, a: 1}
--- !u!114 &2386566834938538149
MonoBehaviour:
  m_ObjectHideFlags: 0
  m_CorrespondingSourceObject: {fileID: 0}
  m_PrefabInstance: {fileID: 0}
  m_PrefabAsset: {fileID: 0}
  m_GameObject: {fileID: 0}
  m_Enabled: 1
  m_EditorHideFlags: 0
  m_Script: {fileID: 12106, guid: 0000000000000000e000000000000000, type: 0}
  m_Name: Tree Data
  m_EditorClassIdentifier: 
  _uniqueID: 5
  materialHash: 31d6cfe0d16ae931b73c59d7e0c089c0-583008256
  root:
    _uniqueID: 1
    seed: 1234
    _internalSeed: 2727
    m_Hash: 
    distributionFrequency: 1
    distributionMode: 0
    distributionCurve:
      serializedVersion: 2
      m_Curve:
      - serializedVersion: 3
        time: 0
        value: 1
        inSlope: 0
        outSlope: 0
        tangentMode: 0
        weightedMode: 0
        inWeight: 0
        outWeight: 0
      - serializedVersion: 3
        time: 1
        value: 1
        inSlope: 0
        outSlope: 0
        tangentMode: 0
        weightedMode: 0
        inWeight: 0
        outWeight: 0
      m_PreInfinity: 2
      m_PostInfinity: 2
      m_RotationOrder: 4
    distributionNodes: 5
    distributionTwirl: 0
    distributionPitch: 0
    distributionPitchCurve:
      serializedVersion: 2
      m_Curve:
      - serializedVersion: 3
        time: 0
        value: 1
        inSlope: 0
        outSlope: 0
        tangentMode: 0
        weightedMode: 0
        inWeight: 0
        outWeight: 0
      - serializedVersion: 3
        time: 1
        value: 1
        inSlope: 0
        outSlope: 0
        tangentMode: 0
        weightedMode: 0
        inWeight: 0
        outWeight: 0
      m_PreInfinity: 2
      m_PostInfinity: 2
      m_RotationOrder: 4
    distributionScale: 1
    distributionScaleCurve:
      serializedVersion: 2
      m_Curve:
      - serializedVersion: 3
        time: 0
        value: 1
        inSlope: 0
        outSlope: 0
        tangentMode: 0
        weightedMode: 0
        inWeight: 0
        outWeight: 0
      - serializedVersion: 3
        time: 1
        value: 0.3
        inSlope: 0
        outSlope: 0
        tangentMode: 0
        weightedMode: 0
        inWeight: 0
        outWeight: 0
      m_PreInfinity: 2
      m_PostInfinity: 2
      m_RotationOrder: 4
    showAnimationProps: 1
    animationPrimary: 0.5
    animationSecondary: 0.5
    animationEdge: 1
    visible: 1
    lockFlags: 0
    nodeIDs: 02000000
    parentGroupID: -1
    childGroupIDs: 03000000
    adaptiveLODQuality: 0.8
    shadowTextureQuality: 3
    enableWelding: 1
    enableAmbientOcclusion: 1
    enableMaterialOptimize: 1
    aoDensity: 1
    rootSpread: 5
    groundOffset: 0
    rootMatrix:
      e00: 1
      e01: 0
      e02: 0
      e03: 0
      e10: 0
      e11: 1
      e12: 0
      e13: 0
      e20: 0
      e21: 0
      e22: 1
      e23: 0
      e30: 0
      e31: 0
      e32: 0
      e33: 1
  branchGroups:
  - _uniqueID: 3
    seed: 1234
    _internalSeed: 2727
    m_Hash: 
    distributionFrequency: 1
    distributionMode: 0
    distributionCurve:
      serializedVersion: 2
      m_Curve:
      - serializedVersion: 3
        time: 0
        value: 1
        inSlope: 0
        outSlope: 0
        tangentMode: 0
        weightedMode: 0
        inWeight: 0
        outWeight: 0
      - serializedVersion: 3
        time: 1
        value: 1
        inSlope: 0
        outSlope: 0
        tangentMode: 0
        weightedMode: 0
        inWeight: 0
        outWeight: 0
      m_PreInfinity: 2
      m_PostInfinity: 2
      m_RotationOrder: 4
    distributionNodes: 5
    distributionTwirl: 0
    distributionPitch: 0
    distributionPitchCurve:
      serializedVersion: 2
      m_Curve:
      - serializedVersion: 3
        time: 0
        value: 1
        inSlope: 0
        outSlope: 0
        tangentMode: 0
        weightedMode: 0
        inWeight: 0
        outWeight: 0
      - serializedVersion: 3
        time: 1
        value: 1
        inSlope: 0
        outSlope: 0
        tangentMode: 0
        weightedMode: 0
        inWeight: 0
        outWeight: 0
      m_PreInfinity: 2
      m_PostInfinity: 2
      m_RotationOrder: 4
    distributionScale: 1
    distributionScaleCurve:
      serializedVersion: 2
      m_Curve:
      - serializedVersion: 3
        time: 0
        value: 1
        inSlope: 0
        outSlope: 0
        tangentMode: 0
        weightedMode: 0
        inWeight: 0
        outWeight: 0
      - serializedVersion: 3
        time: 1
        value: 0.3
        inSlope: 0
        outSlope: 0
        tangentMode: 0
        weightedMode: 0
        inWeight: 0
        outWeight: 0
      m_PreInfinity: 2
      m_PostInfinity: 2
      m_RotationOrder: 4
    showAnimationProps: 1
    animationPrimary: 0.5
    animationSecondary: 0
    animationEdge: 1
    visible: 0
    lockFlags: 0
    nodeIDs: 04000000
    parentGroupID: 1
    childGroupIDs: 
    lodQualityMultiplier: 1
    geometryMode: 0
    materialBranch: {fileID: 0}
    materialBreak: {fileID: 0}
    materialFrond: {fileID: 0}
    height: {x: 10, y: 15}
    radius: 0.5
    radiusCurve:
      serializedVersion: 2
      m_Curve:
      - serializedVersion: 3
        time: 0
        value: 1
        inSlope: -1
        outSlope: -1
        tangentMode: 0
        weightedMode: 0
        inWeight: 0
        outWeight: 0
      - serializedVersion: 3
        time: 1
        value: 0
        inSlope: -1
        outSlope: -1
        tangentMode: 0
        weightedMode: 0
        inWeight: 0
        outWeight: 0
      m_PreInfinity: 2
      m_PostInfinity: 2
      m_RotationOrder: 4
    radiusMode: 1
    capSmoothing: 0
    crinklyness: 0.1
    crinkCurve:
      serializedVersion: 2
      m_Curve:
      - serializedVersion: 3
        time: 0
        value: 1
        inSlope: 0
        outSlope: 0
        tangentMode: 0
        weightedMode: 0
        inWeight: 0
        outWeight: 0
      - serializedVersion: 3
        time: 1
        value: 1
        inSlope: 0
        outSlope: 0
        tangentMode: 0
        weightedMode: 0
        inWeight: 0
        outWeight: 0
      m_PreInfinity: 2
      m_PostInfinity: 2
      m_RotationOrder: 4
    seekBlend: 0
    seekCurve:
      serializedVersion: 2
      m_Curve:
      - serializedVersion: 3
        time: 0
        value: 1
        inSlope: 0
        outSlope: 0
        tangentMode: 0
        weightedMode: 0
        inWeight: 0
        outWeight: 0
      - serializedVersion: 3
        time: 1
        value: 1
        inSlope: 0
        outSlope: 0
        tangentMode: 0
        weightedMode: 0
        inWeight: 0
        outWeight: 0
      m_PreInfinity: 2
      m_PostInfinity: 2
      m_RotationOrder: 4
    noise: 0.1
    noiseCurve:
      serializedVersion: 2
      m_Curve:
      - serializedVersion: 3
        time: 0
        value: 1
        inSlope: 0
        outSlope: 0
        tangentMode: 0
        weightedMode: 0
        inWeight: 0
        outWeight: 0
      - serializedVersion: 3
        time: 1
        value: 1
        inSlope: 0
        outSlope: 0
        tangentMode: 0
        weightedMode: 0
        inWeight: 0
        outWeight: 0
      m_PreInfinity: 2
      m_PostInfinity: 2
      m_RotationOrder: 4
    noiseScaleU: 0.2
    noiseScaleV: 0.1
    flareSize: 0
    flareHeight: 0.1
    flareNoise: 0.3
    weldHeight: 0.1
    weldSpreadTop: 0
    weldSpreadBottom: 0
    breakingChance: 0
    breakingSpot: {x: 0.4, y: 0.6}
    frondCount: 1
    frondWidth: 1
    frondCurve:
      serializedVersion: 2
      m_Curve:
      - serializedVersion: 3
        time: 0
        value: 1
        inSlope: 0
        outSlope: 0
        tangentMode: 0
        weightedMode: 0
        inWeight: 0
        outWeight: 0
      - serializedVersion: 3
        time: 1
        value: 1
        inSlope: 0
        outSlope: 0
        tangentMode: 0
        weightedMode: 0
        inWeight: 0
        outWeight: 0
      m_PreInfinity: 2
      m_PostInfinity: 2
      m_RotationOrder: 4
    frondRange: {x: 0.1, y: 1}
    frondRotation: 0
    frondCrease: 0
  leafGroups: []
  nodes:
  - spline:
      nodes: []
      tension: 0.5
    seed: 3961
    animSeed: 0
    visible: 1
    triStart: 0
    triEnd: 0
    vertStart: 0
    vertEnd: 0
    capRange: 0
    breakOffset: 1
    size: 5
    scale: 1
    offset: 0
    baseAngle: 0
    angle: 0
    pitch: -0
    rotation: {x: 0, y: 0, z: 0, w: 1}
    matrix:
      e00: 1
      e01: 0
      e02: 0
      e03: 0
      e10: 0
      e11: 1
      e12: 0
      e13: 0
      e20: 0
      e21: 0
      e22: 1
      e23: 0
      e30: 0
      e31: 0
      e32: 0
      e33: 1
    parentID: 0
    groupID: 1
    _uniqueID: 2
  - spline:
      nodes:
      - point: {x: 0, y: 0, z: 0}
        rot: {x: 0, y: 0, z: 0, w: 1}
        normal: {x: 0, y: 0, z: 1}
        tangent: {x: 0, y: 1, z: 0}
        time: 0
      - point: {x: -0.06821081, y: 0.98925984, z: 0.12927605}
        rot: {x: 0.062532425, y: 0.00029901002, z: -0.004931399, w: 0.9980308}
        normal: {x: 0, y: -0.1248219, z: 0.9921792}
        tangent: {x: 0.009876993, y: 0.99213076, z: 0.12481581}
        time: 0.066715024
      - point: {x: 0.019693486, y: 1.978184, z: 0.24886703}
        rot: {x: 0.017959693, y: 0.0010780959, z: -0.0353372, w: 0.9992136}
        normal: {x: 0.0008796331, y: -0.03596792, z: 0.9993526}
        tangent: {x: 0.07065757, y: 0.99685746, z: 0.035815924}
        time: 0.13343005
      - point: {x: 0.07258296, y: 2.9756193, z: 0.20064364}
        rot: {x: 0.003932862, y: 0.0014850495, z: -0.013233232, w: 0.9999036}
        normal: {x: 0.0028675718, y: -0.0079023475, z: 0.99996465}
        tangent: {x: 0.026475683, y: 0.9996188, z: 0.007823691}
        time: 0.20014508
      - point: {x: 0.072543085, y: 3.9735794, z: 0.26448435}
        rot: {x: 0.0066592684, y: 0.0012802843, z: 0.012649453, w: 0.999897}
        normal: {x: 0.0027249975, y: -0.013283711, z: 0.99990803}
        tangent: {x: -0.025278961, y: 0.9995913, z: 0.013348394}
        time: 0.2668601
      - point: {x: 0.022105657, y: 4.971614, z: 0.22729787}
        rot: {x: -0.027515689, y: 0.001979648, z: 0.053853765, w: 0.9981677}
        normal: {x: 0.0009889271, y: 0.055143304, z: 0.99847794}
        tangent: {x: -0.10761923, y: 0.9926853, z: -0.054716803}
        time: 0.33357513
      - point: {x: -0.14230731, y: 5.9553704, z: 0.15524805}
        rot: {x: -0.02848871, y: 0.0027295751, z: 0.08218061, w: 0.99620646}
        normal: {x: 0.0007647872, y: 0.05721065, z: 0.9983619}
        tangent: {x: -0.16389334, y: 0.9848695, z: -0.056311924}
        time: 0.40029016
      - point: {x: -0.30564016, y: 6.9411073, z: 0.11468807}
        rot: {x: -0.024010643, y: 0.0027755902, z: 0.06834139, w: 0.99736917}
        normal: {x: 0.0022513496, y: 0.048275046, z: 0.99883157}
        tangent: {x: -0.13645615, y: 0.9895059, z: -0.047516752}
        time: 0.46700516
      - point: {x: -0.41511247, y: 7.933605, z: 0.060251866}
        rot: {x: -0.015887443, y: 0.002660461, z: 0.025856156, w: 0.999536}
        normal: {x: 0.00450867, y: 0.031897344, z: 0.999481}
        tangent: {x: -0.05177255, y: 0.9981581, z: -0.03162158}
        time: 0.5337202
      - point: {x: -0.40898427, y: 8.933549, z: 0.05156767}
        rot: {x: -0.03152512, y: 0.0016692866, z: 0.0070262053, w: 0.99947697}
        normal: {x: 0.0028903147, y: 0.0630408, z: 0.99800676}
        tangent: {x: -0.014150493, y: 0.9979136, z: -0.062993936}
        time: 0.60043526
      - point: {x: -0.44336584, y: 9.926075, z: -0.06552407}
        rot: {x: -0.089410156, y: 0.0014749814, z: 0.009552734, w: 0.9959481}
        normal: {x: 0.0012329891, y: 0.17812409, z: 0.9840073}
        tangent: {x: -0.019291101, y: 0.98382914, z: -0.17806767}
        time: 0.66715026
      - point: {x: -0.4474889, y: 10.897251, z: -0.3038516}
        rot: {x: -0.12451831, y: -0.0037386217, z: -0.029239347, w: 0.99177945}
        normal: {x: -0.000133437, y: 0.24720798, z: 0.96896243}
        tangent: {x: 0.05892924, y: 0.9672805, z: -0.24677077}
        time: 0.73386526
      - point: {x: -0.32574677, y: 11.856707, z: -0.55806315}
        rot: {x: -0.14460535, y: -0.001953125, z: -0.02113897, w: 0.9892617}
        normal: {x: 0.0022537718, y: 0.2861876, z: 0.95817095}
        tangent: {x: 0.04238849, y: 0.95728487, z: -0.28602266}
        time: 0.8005803
      - point: {x: -0.36302197, y: 12.804819, z: -0.8738048}
        rot: {x: -0.14044851, y: 0.0045033856, z: 0.024964796, w: 0.98976296}
        normal: {x: 0.0019024905, y: 0.2782463, z: 0.96050787}
        tangent: {x: -0.05068393, y: 0.95930195, z: -0.2777966}
        time: 0.8672953
      - point: {x: -0.4270262, y: 13.773637, z: -1.1131716}
        rot: {x: -0.108110145, y: 0.0025106159, z: -0.0010139922, w: 0.9941353}
        normal: {x: 0.005211346, y: 0.21494707, z: 0.9766118}
        tangent: {x: 0.0014779901, y: 0.97662234, z: -0.21495728}
        time: 0.9340103
      - point: {x: -0.36080128, y: 14.742584, z: -1.3005964}
        rot: {x: -0.095250204, y: -0.0006224389, z: -0.033589527, w: 0.99488634}
        normal: {x: 0.0051712976, y: 0.18956788, z: 0.981854}
        tangent: {x: 0.06695289, y: 0.9795983, z: -0.18948498}
        time: 1
      tension: 0.5
    seed: 3961
    animSeed: 0
    visible: 1
    triStart: 0
    triEnd: 0
    vertStart: 0
    vertEnd: 0
    capRange: 0
    breakOffset: 1
    size: 0.49963757
    scale: 0.99927515
    offset: 0
    baseAngle: 0
    angle: 0
    pitch: -0
    rotation: {x: 0, y: 0, z: 0, w: 1}
    matrix:
      e00: 1
      e01: 0
      e02: 0
      e03: 0
      e10: 0
      e11: 1
      e12: 0
      e13: -0
      e20: 0
      e21: 0
      e22: 1
      e23: 0
      e30: 0
      e31: 0
      e32: 0
      e33: 1
    parentID: 2
    groupID: 3
    _uniqueID: 4
  mesh: {fileID: -3308822204670646898}
  optimizedSolidMaterial: {fileID: 2637286231629547053}
  optimizedCutoutMaterial: {fileID: -490060827512846566}
  isInPreviewMode: 0
--- !u!21 &2637286231629547053
Material:
  serializedVersion: 6
  m_ObjectHideFlags: 0
  m_CorrespondingSourceObject: {fileID: 0}
  m_PrefabInstance: {fileID: 0}
  m_PrefabAsset: {fileID: 0}
  m_Name: Optimized Bark Material
  m_Shader: {fileID: 10604, guid: 0000000000000000f000000000000000, type: 0}
  m_ShaderKeywords: 
  m_LightmapFlags: 4
  m_EnableInstancingVariants: 0
  m_DoubleSidedGI: 0
  m_CustomRenderQueue: -1
  stringTagMap: {}
  disabledShaderPasses: []
  m_SavedProperties:
    serializedVersion: 3
    m_TexEnvs:
    - _BumpSpecMap:
        m_Texture: {fileID: 2800000, guid: f385bd8f8c627d447954dc4c57cda7d3, type: 3}
        m_Scale: {x: 1, y: 1}
        m_Offset: {x: 0, y: 0}
    - _MainTex:
        m_Texture: {fileID: 2800000, guid: e4be5a2219a32ed409b4f063d9195332, type: 3}
        m_Scale: {x: 1, y: 1}
        m_Offset: {x: 0, y: 0}
    - _TranslucencyMap:
        m_Texture: {fileID: 2800000, guid: 92203d5acc98461499337ac0a347ad4c, type: 3}
        m_Scale: {x: 1, y: 1}
        m_Offset: {x: 0, y: 0}
    m_Floats:
    - _Cutoff: 0.3
    - _SquashAmount: 1
    m_Colors:
    - _Color: {r: 1, g: 1, b: 1, a: 1}
    - _SpecColor: {r: 0.5, g: 0.5, b: 0.5, a: 1}
    - _TreeInstanceColor: {r: 1, g: 1, b: 1, a: 1}
    - _TreeInstanceScale: {r: 1, g: 1, b: 1, a: 1}
